<svg width="44" height="45" viewBox="0 0 44 45" fill="none" xmlns="http://www.w3.org/2000/svg">
<path fill-rule="evenodd" clip-rule="evenodd" d="M22.035 42.0665C32.819 42.0665 41.5613 33.3241 41.5613 22.5402C41.5613 11.7562 32.819 3.01389 22.035 3.01389C11.2511 3.01389 2.50876 11.7562 2.50876 22.5402C2.50876 33.3241 11.2511 42.0665 22.035 42.0665ZM22.035 44.2361C34.0177 44.2361 43.7309 34.5228 43.7309 22.5402C43.7309 10.5575 34.0177 0.844299 22.035 0.844299C10.0524 0.844299 0.339172 10.5575 0.339172 22.5402C0.339172 34.5228 10.0524 44.2361 22.035 44.2361Z" fill="#2A579A"/>
<path d="M9.01752 35.1564C9.01752 34.0358 9.85498 33.0887 10.9701 32.9651C19.3393 32.0387 24.7687 32.1222 33.1195 32.9857C33.5365 33.0295 33.9317 33.1938 34.2569 33.4585C34.5821 33.7232 34.8231 34.0769 34.9506 34.4763C35.0781 34.8758 35.0864 35.3037 34.9747 35.7078C34.863 36.112 34.636 36.4748 34.3214 36.7521C24.4661 45.3426 18.8338 45.2243 9.71179 36.7608C9.26702 36.3485 9.01752 35.7628 9.01752 35.1574V35.1564Z" fill="#2A579A"/>
<path fill-rule="evenodd" clip-rule="evenodd" d="M33.0077 34.064C24.7232 33.207 19.3719 33.1267 11.0884 34.0434C10.8157 34.0751 10.5644 34.2064 10.3824 34.4119C10.2005 34.6175 10.1007 34.8829 10.1023 35.1574C10.1023 35.4677 10.2314 35.7617 10.4495 35.9656C14.9709 40.1594 18.3967 42.0546 21.7454 42.0665C25.1061 42.0784 28.7163 40.1985 33.6087 35.9352C33.7641 35.7969 33.876 35.6164 33.9308 35.4156C33.9855 35.2149 33.9808 35.0026 33.9172 34.8045C33.8535 34.6064 33.7337 34.431 33.5722 34.2998C33.4108 34.1685 33.2147 34.087 33.0077 34.0651V34.064ZM10.8508 31.8868C19.3079 30.9506 24.8165 31.0352 33.2323 31.9063C33.8596 31.9718 34.4543 32.2188 34.9434 32.617C35.4325 33.0152 35.795 33.5474 35.9863 34.1485C36.1776 34.7495 36.1895 35.3933 36.0206 36.001C35.8517 36.6087 35.5093 37.1539 35.0352 37.57C30.0723 41.8962 25.9392 44.2524 21.7389 44.2361C17.5266 44.2209 13.5758 41.8246 8.97522 37.5559C8.64582 37.2491 8.38324 36.8777 8.20387 36.4648C8.0245 36.0519 7.9322 35.6065 7.93273 35.1564C7.93115 34.3476 8.22801 33.5666 8.76646 32.9631C9.30491 32.3596 10.0471 31.976 10.8508 31.8857V31.8868Z" fill="#2A579A"/>
<path d="M30.7134 18.201C30.7134 20.5026 29.7991 22.71 28.1716 24.3375C26.5441 25.965 24.3367 26.8793 22.0351 26.8793C19.7334 26.8793 17.526 25.965 15.8985 24.3375C14.271 22.71 13.3567 20.5026 13.3567 18.201C13.3567 15.8994 14.271 13.692 15.8985 12.0645C17.526 10.437 19.7334 9.52264 22.0351 9.52264C24.3367 9.52264 26.5441 10.437 28.1716 12.0645C29.7991 13.692 30.7134 15.8994 30.7134 18.201Z" fill="#2A579A"/>
<path fill-rule="evenodd" clip-rule="evenodd" d="M22.0351 24.7098C23.7613 24.7098 25.4168 24.024 26.6374 22.8034C27.8581 21.5828 28.5438 19.9272 28.5438 18.201C28.5438 16.4748 27.8581 14.8192 26.6374 13.5986C25.4168 12.378 23.7613 11.6922 22.0351 11.6922C20.3088 11.6922 18.6533 12.378 17.4327 13.5986C16.212 14.8192 15.5263 16.4748 15.5263 18.201C15.5263 19.9272 16.212 21.5828 17.4327 22.8034C18.6533 24.024 20.3088 24.7098 22.0351 24.7098ZM22.0351 26.8793C24.3367 26.8793 26.5441 25.965 28.1716 24.3375C29.7991 22.71 30.7134 20.5026 30.7134 18.201C30.7134 15.8994 29.7991 13.692 28.1716 12.0645C26.5441 10.437 24.3367 9.52264 22.0351 9.52264C19.7334 9.52264 17.526 10.437 15.8985 12.0645C14.271 13.692 13.3567 15.8994 13.3567 18.201C13.3567 20.5026 14.271 22.71 15.8985 24.3375C17.526 25.965 19.7334 26.8793 22.0351 26.8793Z" fill="#2A579A"/>
</svg>
